<svg xmlns="http://www.w3.org/2000/svg" width="47.896" height="47.896" viewBox="0 0 47.896 47.896">
  <g id="Group_224" data-name="Group 224" transform="translate(0 0)">
    <path id="Path_1915" data-name="Path 1915" d="M14.953,22.08l5.479,3.065,11.581-9.119,3.755,1.638L20.385,32.55l-8.257-8.257Z" fill="#8cc63e"/>
    <path id="Path_1916" data-name="Path 1916" d="M32.32,3.736l11.84,11.84V32.32L32.32,44.16H15.576L3.736,32.32V15.576l11.84-11.84H32.32M33.862,0H14.024L0,14.024V33.862L14.024,47.9H33.862L47.9,33.862V14.024Z" fill="#8cc63e"/>
  </g>
</svg>
