<?xml version="1.0" encoding="UTF-8"?>
<svg version="1.1" viewBox="0 0 1232.2 1397.2" xmlns="http://www.w3.org/2000/svg">
 <defs>
  <linearGradient id="linear-gradient" x1="653.4" x2="653.4" y1="-.00012054" y2="1306.8" gradientTransform="scale(1.1045 .90537)" gradientUnits="userSpaceOnUse">
   <stop stop-color="#38ff00" offset="0"/>
   <stop stop-color="#023400" offset="1"/>
  </linearGradient>
  <clipPath id="clip-path">
   <path d="m998.5 376.41c-255.62-133.96-376.27-545.54-770.9-299.59-355.15 221.35-258.13 652.78 40.4 825.88-0.958 5.024 64.223 248.28 66.95 249.86 378.16 122.21 904.51-149.12 1041.4-376.14 233.96-387.92-206.4-310.15-377.88-400.01z" fill="none" data-name="Path 1507"/>
  </clipPath>
  <linearGradient id="linear-gradient-2" x1="617.29" x2="727.31" y1="240.89" y2="1078.2" gradientTransform="scale(1.2429 .80454)" gradientUnits="userSpaceOnUse">
   <stop stop-color="#0aad03" offset="0"/>
   <stop stop-color="#049b00" offset="1"/>
  </linearGradient>
  <linearGradient id="linear-gradient-3" x1="55.799" x2="25.859" y1="-22.53" y2="47.463" gradientTransform="scale(.95929 1.0424)" gradientUnits="userSpaceOnUse">
   <stop stop-color="#2c27ce" offset="0"/>
   <stop stop-color="#ed1f45" offset="1"/>
  </linearGradient>
 </defs>
 <g id="Committee_Graphic_Table" transform="translate(-894.96 200.35)" data-name="Committee Graphic Table">
  <path transform="rotate(-78 1093.1 28.182)" d="m998.5 376.41c-255.61-133.96-376.27-545.54-770.89-299.59-354.76 221.1-258.35 651.82 39.317 825.25-0.45 3.5 28.983 238.38 67.181 250.72 378.16 122.21 905.36-149.35 1042.3-376.37 233.95-387.92-206.41-310.15-377.89-400.01z" fill="url(#linear-gradient)" data-name="Path 1505"/>
  <g transform="matrix(-.966 -.259 .259 -.966 1926.6 996.84)" data-name="Group 116">
   <g transform="rotate(87 710.01 354.47)" clip-path="url(#clip-path)" data-name="Group 115">
    <path transform="translate(89.315 289.15)" d="m0 497.76s90.238-123.89 454.32-33.944 578.45 12.836 533.24-463.81c0 0 511.74 61.917 446.13 377.26-42.439 203.97-306.72 365.36-699.94 482.26s-353.94 74.072-549.85-2.643-181.75-359.7-183.9-359.12z" fill="url(#linear-gradient-2)" data-name="Path 1506"/>
   </g>
  </g>
  <path id="Chair" transform="rotate(239 871.43 -253.55)" d="m5 0h149a5 5 0 0 1 5 5l-14.57 63.016 14.57 74.984a25 25 0 0 1-25 25h-109a25 25 0 0 1-25-25l11.094-82.186-11.094-55.814a5 5 0 0 1 5-5z"/>
  <path transform="rotate(-1 40786 -67615)" d="m5 0h149a5 5 0 0 1 5 5l-14.57 63.016 14.57 74.984a25 25 0 0 1-25 25h-109a25 25 0 0 1-25-25l11.094-82.186-11.094-55.814a5 5 0 0 1 5-5z" data-name="Chair"/>
  <path transform="rotate(132 510.35 355.33)" d="m5 0h149a5 5 0 0 1 5 5l-14.57 63.016 14.57 74.984a25 25 0 0 1-25 25h-109a25 25 0 0 1-25-25l11.094-82.186-11.094-55.814a5 5 0 0 1 5-5z" data-name="Chair"/>
  <path id="Legs" transform="rotate(239 863.01 -267.26)" d="m3.589 0 42.181 0.053 8.89 19.321 11.609-19.321 44.265-0.053a3.589 3.589 0 0 1 3.589 3.589l-10.458 45.23c0.943 26.575-9.377 34.808-9.377 34.808s-56.654 9.994-78.235 0-7.653-9.266-8.09-39.977l-7.963-40.061a3.589 3.589 0 0 1 3.589-3.589z" fill="#167db1"/>
  <path transform="rotate(-1 41600 -69354)" d="m3.262 0 38.338 0.048 8.818 20.384 9.814-20.384 40.233-0.048a3.262 3.262 0 0 1 3.262 3.262s-11.867 20.893-12.664 37.882-5.363 34.864-5.363 34.864-51.493 9.084-71.108 0 1.667-20.047-1.981-38.234-12.611-34.512-12.611-34.512a3.262 3.262 0 0 1 3.262-3.262z" fill="#ed1f45" data-name="Legs"/>
  <path transform="rotate(132 495.07 354)" d="m3.589 0 42.181 0.053 8.89 19.321 11.609-19.321 44.265-0.053a3.589 3.589 0 0 1 3.589 3.589l-10.458 45.23c0.943 26.575-9.377 34.808-9.377 34.808s-56.654 9.994-78.235 0-7.653-9.266-8.09-39.977l-7.963-40.061a3.589 3.589 0 0 1 3.589-3.589z" fill="#167db1" data-name="Legs"/>
  <path id="Table" transform="translate(971,137)" d="m296 0c163.48 0 296 132.52 296 296s-132.52 296-296 296-296-132.52-296-296 132.52-296 296-296z" fill="#ececec"/>
  <g id="Laptop" transform="rotate(-2 1126.4 11763)">
   <rect id="laptop_bottom" transform="translate(1597.5 619.94)" width="121.13" height="76.857" rx="5" fill="#b4b4b4" data-name="laptop bottom"/>
   <g transform="translate(1603.3 629.12)" data-name="Group 208">
    <rect id="laptop_keys" width="5.012" height="5.012" rx="1" data-name="laptop keys"/>
    <rect transform="translate(0,7.519)" width="5.012" height="5.012" rx="1" data-name="laptop keys"/>
    <rect transform="translate(0,15.037)" width="5.012" height="5.012" rx="1" data-name="laptop keys"/>
    <rect transform="translate(0,22.556)" width="5.012" height="5.012" rx="1" data-name="laptop keys"/>
    <rect transform="translate(0,30.074)" width="12.531" height="5.012" rx="1" data-name="laptop keys"/>
    <rect transform="translate(0,37.593)" width="5.012" height="5.012" rx="1" data-name="laptop keys"/>
    <rect transform="translate(15.037)" width="5.012" height="5.012" rx="1" data-name="laptop keys"/>
    <rect transform="translate(15.037,7.519)" width="5.012" height="5.012" rx="1" data-name="laptop keys"/>
    <rect transform="translate(15.037,15.037)" width="5.012" height="5.012" rx="1" data-name="laptop keys"/>
    <rect transform="translate(15.037,22.556)" width="5.012" height="5.012" rx="1" data-name="laptop keys"/>
    <rect transform="translate(15.037,30.074)" width="5.012" height="5.012" rx="1" data-name="laptop keys"/>
    <rect transform="translate(15.037,37.593)" width="5.012" height="5.012" rx="1" data-name="laptop keys"/>
    <rect transform="translate(30.074)" width="5.012" height="5.012" rx="1" data-name="laptop keys"/>
    <rect transform="translate(30.074,7.519)" width="5.012" height="5.012" rx="1" data-name="laptop keys"/>
    <rect transform="translate(30.074,15.037)" width="5.012" height="5.012" rx="1" data-name="laptop keys"/>
    <rect transform="translate(30.074,22.556)" width="5.012" height="5.012" rx="1" data-name="laptop keys"/>
    <rect transform="translate(30.074,30.074)" width="5.012" height="5.012" rx="1" data-name="laptop keys"/>
    <rect transform="translate(30.074,37.593)" width="5.012" height="5.012" rx="1" data-name="laptop keys"/>
    <rect transform="translate(45.112)" width="5.012" height="5.012" rx="1" data-name="laptop keys"/>
    <rect transform="translate(45.112,7.519)" width="5.012" height="5.012" rx="1" data-name="laptop keys"/>
    <rect transform="translate(45.112,15.037)" width="5.012" height="5.012" rx="1" data-name="laptop keys"/>
    <rect transform="translate(45.112,22.556)" width="5.012" height="5.012" rx="1" data-name="laptop keys"/>
    <rect transform="translate(45.112,30.074)" width="5.012" height="5.012" rx="1" data-name="laptop keys"/>
    <rect transform="translate(60.149)" width="5.012" height="5.012" rx="1" data-name="laptop keys"/>
    <rect transform="translate(60.149,7.519)" width="5.012" height="5.012" rx="1" data-name="laptop keys"/>
    <rect transform="translate(60.149,15.037)" width="5.012" height="5.012" rx="1" data-name="laptop keys"/>
    <rect transform="translate(60.149,22.556)" width="5.012" height="5.012" rx="1" data-name="laptop keys"/>
    <rect transform="translate(60.149,30.074)" width="5.012" height="5.012" rx="1" data-name="laptop keys"/>
    <rect transform="translate(75.186)" width="5.012" height="5.012" rx="1" data-name="laptop keys"/>
    <rect transform="translate(75.186,7.519)" width="5.012" height="5.012" rx="1" data-name="laptop keys"/>
    <rect transform="translate(75.186,15.037)" width="5.012" height="5.012" rx="1" data-name="laptop keys"/>
    <rect transform="translate(75.186,22.556)" width="5.012" height="5.012" rx="1" data-name="laptop keys"/>
    <rect transform="translate(75.186,30.074)" width="5.012" height="5.012" rx="1" data-name="laptop keys"/>
    <rect transform="translate(75.186,37.593)" width="5.012" height="5.012" rx="1" data-name="laptop keys"/>
    <rect transform="translate(90.223)" width="5.012" height="5.012" rx="1" data-name="laptop keys"/>
    <rect transform="translate(90.223,7.519)" width="5.012" height="5.012" rx="1" data-name="laptop keys"/>
    <rect transform="translate(90.223,15.037)" width="5.012" height="5.012" rx="1" data-name="laptop keys"/>
    <rect transform="translate(90.223,22.556)" width="5.012" height="5.012" rx="1" data-name="laptop keys"/>
    <rect transform="translate(90.223,30.074)" width="5.012" height="5.012" rx="1" data-name="laptop keys"/>
    <rect transform="translate(90.223,37.593)" width="5.012" height="5.012" rx="1" data-name="laptop keys"/>
    <rect transform="translate(7.519)" width="5.012" height="5.012" rx="1" data-name="laptop keys"/>
    <rect transform="translate(7.519,7.519)" width="5.012" height="5.012" rx="1" data-name="laptop keys"/>
    <rect transform="translate(7.519,15.037)" width="5.012" height="5.012" rx="1" data-name="laptop keys"/>
    <rect transform="translate(7.519,22.556)" width="5.012" height="5.012" rx="1" data-name="laptop keys"/>
    <rect transform="translate(7.519,37.593)" width="5.012" height="5.012" rx="1" data-name="laptop keys"/>
    <rect transform="translate(22.556)" width="5.012" height="5.012" rx="1" data-name="laptop keys"/>
    <rect transform="translate(22.556,7.519)" width="5.012" height="5.012" rx="1" data-name="laptop keys"/>
    <rect transform="translate(22.556,15.037)" width="5.012" height="5.012" rx="1" data-name="laptop keys"/>
    <rect transform="translate(22.556,22.556)" width="5.012" height="5.012" rx="1" data-name="laptop keys"/>
    <rect transform="translate(22.556,30.074)" width="5.012" height="5.012" rx="1" data-name="laptop keys"/>
    <rect transform="translate(22.556,37.593)" width="5.012" height="5.012" rx="1" data-name="laptop keys"/>
    <rect transform="translate(37.593)" width="5.012" height="5.012" rx="1" data-name="laptop keys"/>
    <rect transform="translate(37.593,7.519)" width="5.012" height="5.012" rx="1" data-name="laptop keys"/>
    <rect transform="translate(37.593,15.037)" width="5.012" height="5.012" rx="1" data-name="laptop keys"/>
    <rect transform="translate(37.593,22.556)" width="5.012" height="5.012" rx="1" data-name="laptop keys"/>
    <rect transform="translate(37.593,30.074)" width="5.012" height="5.012" rx="1" data-name="laptop keys"/>
    <rect transform="translate(52.63)" width="5.012" height="5.012" rx="1" data-name="laptop keys"/>
    <rect transform="translate(52.63,7.519)" width="5.012" height="5.012" rx="1" data-name="laptop keys"/>
    <rect transform="translate(52.63,15.037)" width="5.012" height="5.012" rx="1" data-name="laptop keys"/>
    <rect transform="translate(52.63,22.556)" width="5.012" height="5.012" rx="1" data-name="laptop keys"/>
    <rect transform="translate(52.63,30.074)" width="5.012" height="5.012" rx="1" data-name="laptop keys"/>
    <rect transform="translate(37.593,37.593)" width="35.087" height="5.012" rx="1" data-name="laptop keys"/>
    <rect transform="translate(37.593,45.112)" width="35.087" height="18.379" rx="1" fill="#9e9e9e" data-name="laptop keys"/>
    <rect transform="translate(67.668)" width="5.012" height="5.012" rx="1" data-name="laptop keys"/>
    <rect transform="translate(67.668,7.519)" width="5.012" height="5.012" rx="1" data-name="laptop keys"/>
    <rect transform="translate(67.668,15.037)" width="5.012" height="5.012" rx="1" data-name="laptop keys"/>
    <rect transform="translate(67.668,22.556)" width="5.012" height="5.012" rx="1" data-name="laptop keys"/>
    <rect transform="translate(67.668,30.074)" width="5.012" height="5.012" rx="1" data-name="laptop keys"/>
    <rect transform="translate(82.705)" width="5.012" height="5.012" rx="1" data-name="laptop keys"/>
    <rect transform="translate(82.705,7.519)" width="5.012" height="5.012" rx="1" data-name="laptop keys"/>
    <rect transform="translate(82.705,15.037)" width="5.012" height="5.012" rx="1" data-name="laptop keys"/>
    <rect transform="translate(82.705,22.556)" width="5.012" height="5.012" rx="1" data-name="laptop keys"/>
    <rect transform="translate(82.705,30.074)" width="5.012" height="5.012" rx="1" data-name="laptop keys"/>
    <rect transform="translate(82.705,37.593)" width="5.012" height="5.012" rx="1" data-name="laptop keys"/>
    <rect transform="translate(97.742)" width="5.012" height="5.012" rx="1" data-name="laptop keys"/>
    <rect transform="translate(97.742,7.519)" width="5.012" height="5.012" rx="1" data-name="laptop keys"/>
    <rect transform="translate(97.742,15.037)" width="5.012" height="5.012" rx="1" data-name="laptop keys"/>
    <rect transform="translate(97.742,22.556)" width="5.012" height="5.012" rx="1" data-name="laptop keys"/>
    <rect transform="translate(97.742,37.593)" width="5.012" height="5.012" rx="1" data-name="laptop keys"/>
    <rect transform="translate(105.26)" width="5.012" height="5.012" rx="1" data-name="laptop keys"/>
    <rect transform="translate(105.26 7.519)" width="5.012" height="5.012" rx="1" data-name="laptop keys"/>
    <rect transform="translate(105.26 15.037)" width="5.012" height="5.012" rx="1" data-name="laptop keys"/>
    <rect transform="translate(105.26 22.556)" width="5.012" height="5.012" rx="1" data-name="laptop keys"/>
    <rect transform="translate(97.742,30.074)" width="12.531" height="5.012" rx="1" data-name="laptop keys"/>
    <rect transform="translate(105.26 37.593)" width="5.012" height="5.012" rx="1" data-name="laptop keys"/>
   </g>
   <path id="laptop_top" transform="translate(1599,536)" d="m-5.156 43h128.93a4.177 4.177 0 0 1 4.177 4.177l-8.351 32.581a4.177 4.177 0 0 1-4.177 4.177h-112.78a4.177 4.177 0 0 1-4.177-4.177l-7.8-32.581a4.177 4.177 0 0 1 4.18-4.177z" fill="#b4b4b4" data-name="laptop top"/>
   <path id="laptop_screen" transform="translate(1600.8 538.49)" d="m-4.278 43h123.49a3.876 3.876 0 0 1 4.055 3.669l-7.27 28.615a3.876 3.876 0 0 1-4.055 3.669h-109.49a3.876 3.876 0 0 1-4.056-3.669l-6.733-28.615a3.876 3.876 0 0 1 4.055-3.669z" data-name="laptop screen"/>
  </g>
  <g transform="rotate(124 1479.9 343.47)" data-name="Laptop">
   <rect transform="translate(1597.5 619.94)" width="121.13" height="76.857" rx="5" fill="#b4b4b4" data-name="laptop bottom"/>
   <g transform="translate(1603.3 629.12)" data-name="Group 208">
    <rect width="5.012" height="5.012" rx="1" data-name="laptop keys"/>
    <rect transform="translate(0,7.519)" width="5.012" height="5.012" rx="1" data-name="laptop keys"/>
    <rect transform="translate(0,15.037)" width="5.012" height="5.012" rx="1" data-name="laptop keys"/>
    <rect transform="translate(0,22.556)" width="5.012" height="5.012" rx="1" data-name="laptop keys"/>
    <rect transform="translate(0,30.074)" width="12.531" height="5.012" rx="1" data-name="laptop keys"/>
    <rect transform="translate(0,37.593)" width="5.012" height="5.012" rx="1" data-name="laptop keys"/>
    <rect transform="translate(15.037)" width="5.012" height="5.012" rx="1" data-name="laptop keys"/>
    <rect transform="translate(15.037,7.519)" width="5.012" height="5.012" rx="1" data-name="laptop keys"/>
    <rect transform="translate(15.037,15.037)" width="5.012" height="5.012" rx="1" data-name="laptop keys"/>
    <rect transform="translate(15.037,22.556)" width="5.012" height="5.012" rx="1" data-name="laptop keys"/>
    <rect transform="translate(15.037,30.074)" width="5.012" height="5.012" rx="1" data-name="laptop keys"/>
    <rect transform="translate(15.037,37.593)" width="5.012" height="5.012" rx="1" data-name="laptop keys"/>
    <rect transform="translate(30.074)" width="5.012" height="5.012" rx="1" data-name="laptop keys"/>
    <rect transform="translate(30.074,7.519)" width="5.012" height="5.012" rx="1" data-name="laptop keys"/>
    <rect transform="translate(30.074,15.037)" width="5.012" height="5.012" rx="1" data-name="laptop keys"/>
    <rect transform="translate(30.074,22.556)" width="5.012" height="5.012" rx="1" data-name="laptop keys"/>
    <rect transform="translate(30.074,30.074)" width="5.012" height="5.012" rx="1" data-name="laptop keys"/>
    <rect transform="translate(30.074,37.593)" width="5.012" height="5.012" rx="1" data-name="laptop keys"/>
    <rect transform="translate(45.112)" width="5.012" height="5.012" rx="1" data-name="laptop keys"/>
    <rect transform="translate(45.112,7.519)" width="5.012" height="5.012" rx="1" data-name="laptop keys"/>
    <rect transform="translate(45.112,15.037)" width="5.012" height="5.012" rx="1" data-name="laptop keys"/>
    <rect transform="translate(45.112,22.556)" width="5.012" height="5.012" rx="1" data-name="laptop keys"/>
    <rect transform="translate(45.112,30.074)" width="5.012" height="5.012" rx="1" data-name="laptop keys"/>
    <rect transform="translate(60.149)" width="5.012" height="5.012" rx="1" data-name="laptop keys"/>
    <rect transform="translate(60.149,7.519)" width="5.012" height="5.012" rx="1" data-name="laptop keys"/>
    <rect transform="translate(60.149,15.037)" width="5.012" height="5.012" rx="1" data-name="laptop keys"/>
    <rect transform="translate(60.149,22.556)" width="5.012" height="5.012" rx="1" data-name="laptop keys"/>
    <rect transform="translate(60.149,30.074)" width="5.012" height="5.012" rx="1" data-name="laptop keys"/>
    <rect transform="translate(75.186)" width="5.012" height="5.012" rx="1" data-name="laptop keys"/>
    <rect transform="translate(75.186,7.519)" width="5.012" height="5.012" rx="1" data-name="laptop keys"/>
    <rect transform="translate(75.186,15.037)" width="5.012" height="5.012" rx="1" data-name="laptop keys"/>
    <rect transform="translate(75.186,22.556)" width="5.012" height="5.012" rx="1" data-name="laptop keys"/>
    <rect transform="translate(75.186,30.074)" width="5.012" height="5.012" rx="1" data-name="laptop keys"/>
    <rect transform="translate(75.186,37.593)" width="5.012" height="5.012" rx="1" data-name="laptop keys"/>
    <rect transform="translate(90.223)" width="5.012" height="5.012" rx="1" data-name="laptop keys"/>
    <rect transform="translate(90.223,7.519)" width="5.012" height="5.012" rx="1" data-name="laptop keys"/>
    <rect transform="translate(90.223,15.037)" width="5.012" height="5.012" rx="1" data-name="laptop keys"/>
    <rect transform="translate(90.223,22.556)" width="5.012" height="5.012" rx="1" data-name="laptop keys"/>
    <rect transform="translate(90.223,30.074)" width="5.012" height="5.012" rx="1" data-name="laptop keys"/>
    <rect transform="translate(90.223,37.593)" width="5.012" height="5.012" rx="1" data-name="laptop keys"/>
    <rect transform="translate(7.519)" width="5.012" height="5.012" rx="1" data-name="laptop keys"/>
    <rect transform="translate(7.519,7.519)" width="5.012" height="5.012" rx="1" data-name="laptop keys"/>
    <rect transform="translate(7.519,15.037)" width="5.012" height="5.012" rx="1" data-name="laptop keys"/>
    <rect transform="translate(7.519,22.556)" width="5.012" height="5.012" rx="1" data-name="laptop keys"/>
    <rect transform="translate(7.519,37.593)" width="5.012" height="5.012" rx="1" data-name="laptop keys"/>
    <rect transform="translate(22.556)" width="5.012" height="5.012" rx="1" data-name="laptop keys"/>
    <rect transform="translate(22.556,7.519)" width="5.012" height="5.012" rx="1" data-name="laptop keys"/>
    <rect transform="translate(22.556,15.037)" width="5.012" height="5.012" rx="1" data-name="laptop keys"/>
    <rect transform="translate(22.556,22.556)" width="5.012" height="5.012" rx="1" data-name="laptop keys"/>
    <rect transform="translate(22.556,30.074)" width="5.012" height="5.012" rx="1" data-name="laptop keys"/>
    <rect transform="translate(22.556,37.593)" width="5.012" height="5.012" rx="1" data-name="laptop keys"/>
    <rect transform="translate(37.593)" width="5.012" height="5.012" rx="1" data-name="laptop keys"/>
    <rect transform="translate(37.593,7.519)" width="5.012" height="5.012" rx="1" data-name="laptop keys"/>
    <rect transform="translate(37.593,15.037)" width="5.012" height="5.012" rx="1" data-name="laptop keys"/>
    <rect transform="translate(37.593,22.556)" width="5.012" height="5.012" rx="1" data-name="laptop keys"/>
    <rect transform="translate(37.593,30.074)" width="5.012" height="5.012" rx="1" data-name="laptop keys"/>
    <rect transform="translate(52.63)" width="5.012" height="5.012" rx="1" data-name="laptop keys"/>
    <rect transform="translate(52.63,7.519)" width="5.012" height="5.012" rx="1" data-name="laptop keys"/>
    <rect transform="translate(52.63,15.037)" width="5.012" height="5.012" rx="1" data-name="laptop keys"/>
    <rect transform="translate(52.63,22.556)" width="5.012" height="5.012" rx="1" data-name="laptop keys"/>
    <rect transform="translate(52.63,30.074)" width="5.012" height="5.012" rx="1" data-name="laptop keys"/>
    <rect transform="translate(37.593,37.593)" width="35.087" height="5.012" rx="1" data-name="laptop keys"/>
    <rect transform="translate(37.593,45.112)" width="35.087" height="18.379" rx="1" fill="#9e9e9e" data-name="laptop keys"/>
    <rect transform="translate(67.668)" width="5.012" height="5.012" rx="1" data-name="laptop keys"/>
    <rect transform="translate(67.668,7.519)" width="5.012" height="5.012" rx="1" data-name="laptop keys"/>
    <rect transform="translate(67.668,15.037)" width="5.012" height="5.012" rx="1" data-name="laptop keys"/>
    <rect transform="translate(67.668,22.556)" width="5.012" height="5.012" rx="1" data-name="laptop keys"/>
    <rect transform="translate(67.668,30.074)" width="5.012" height="5.012" rx="1" data-name="laptop keys"/>
    <rect transform="translate(82.705)" width="5.012" height="5.012" rx="1" data-name="laptop keys"/>
    <rect transform="translate(82.705,7.519)" width="5.012" height="5.012" rx="1" data-name="laptop keys"/>
    <rect transform="translate(82.705,15.037)" width="5.012" height="5.012" rx="1" data-name="laptop keys"/>
    <rect transform="translate(82.705,22.556)" width="5.012" height="5.012" rx="1" data-name="laptop keys"/>
    <rect transform="translate(82.705,30.074)" width="5.012" height="5.012" rx="1" data-name="laptop keys"/>
    <rect transform="translate(82.705,37.593)" width="5.012" height="5.012" rx="1" data-name="laptop keys"/>
    <rect transform="translate(97.742)" width="5.012" height="5.012" rx="1" data-name="laptop keys"/>
    <rect transform="translate(97.742,7.519)" width="5.012" height="5.012" rx="1" data-name="laptop keys"/>
    <rect transform="translate(97.742,15.037)" width="5.012" height="5.012" rx="1" data-name="laptop keys"/>
    <rect transform="translate(97.742,22.556)" width="5.012" height="5.012" rx="1" data-name="laptop keys"/>
    <rect transform="translate(97.742,37.593)" width="5.012" height="5.012" rx="1" data-name="laptop keys"/>
    <rect transform="translate(105.26)" width="5.012" height="5.012" rx="1" data-name="laptop keys"/>
    <rect transform="translate(105.26 7.519)" width="5.012" height="5.012" rx="1" data-name="laptop keys"/>
    <rect transform="translate(105.26 15.037)" width="5.012" height="5.012" rx="1" data-name="laptop keys"/>
    <rect transform="translate(105.26 22.556)" width="5.012" height="5.012" rx="1" data-name="laptop keys"/>
    <rect transform="translate(97.742,30.074)" width="12.531" height="5.012" rx="1" data-name="laptop keys"/>
    <rect transform="translate(105.26 37.593)" width="5.012" height="5.012" rx="1" data-name="laptop keys"/>
   </g>
   <path transform="translate(1599,536)" d="m-5.156 43h128.93a4.177 4.177 0 0 1 4.177 4.177l-8.351 32.581a4.177 4.177 0 0 1-4.177 4.177h-112.78a4.177 4.177 0 0 1-4.177-4.177l-7.8-32.581a4.177 4.177 0 0 1 4.18-4.177z" fill="#b4b4b4" data-name="laptop top"/>
   <path transform="translate(1600.8 538.49)" d="m-4.278 43h123.49a3.876 3.876 0 0 1 4.055 3.669l-7.27 28.615a3.876 3.876 0 0 1-4.055 3.669h-109.49a3.876 3.876 0 0 1-4.056-3.669l-6.733-28.615a3.876 3.876 0 0 1 4.055-3.669z" data-name="laptop screen"/>
  </g>
  <g id="Hand_right" transform="rotate(194 1583 307.05)" data-name="Hand right">
   <path id="White_Tshirt" transform="rotate(231 1008.6 31.907)" d="m322.98 320.09c28 8.991 74.331 12.284 102.62-2.666s10.8-36.172-5.765-43.549c-9.824-4.367-27.589-6.45-34.81-6.45h-24.123c-8.089 0-17.641 0.644-25.482 2.657-35.618 9.135-40.434 41.02-12.438 50.008z" fill="#f5f5f5" data-name="White Tshirt"/>
   <g fill="#ffaf84">
    <path transform="matrix(.53 -.848 .848 .53 1335.8 444.14)" d="m342.51 273.33c5.43-1.892 48.854-14.529 47.809-4.761-1.148 10.8-17.289 19.577-23.074 21.865-10.567 4.181-22.043 0.294-26.032-5.355-2.822-3.996-3.867-9.96 1.297-11.749z" data-name="Path 1470"/>
    <path transform="matrix(.921 .391 -.391 .921 1669.8 225.05)" d="m-0.738 39.106c5.683-0.879 49.956-10.106 44.447-18.241-6.083-9-24.456-9.169-30.638-8.473-11.293 1.269-19.601 10.089-20.471 16.949-0.615 4.853 1.262 10.609 6.662 9.765z" data-name="Path 1887"/>
    <path transform="matrix(.53 -.848 .848 .53 1332.8 440.19)" d="m342.61 275.23c1.878-1.858 13.1-12.842 15.308-10.888 3.361 2.985-3.62 10.54-8.224 15.567-2.493 2.719-7.685 4.713-9.638 2.418s-0.456-4.119 2.554-7.097z" data-name="Path 1471"/>
    <path transform="matrix(.921 .391 -.391 .921 1663.7 250.56)" d="m-2.185 14.755c2.531 0.759 17.6 5.188 18.628 2.427 1.565-4.213-8.143-7.607-14.571-9.882-3.478-1.23-9-0.554-9.645 2.39s1.53 3.849 5.588 5.065z" data-name="Path 1890"/>
    <path transform="matrix(.53 -.848 .848 .53 1306.9 503.03)" d="m417.47 277.86c-4.932 7.207-7.821 5.15-27.917 14.966-25.158 12.3-39.769 17.589-53.007 20.342-12.227 2.548-12.384-25.964 3.245-32.726 13.211-5.711 63.745-13.088 72.468-13.88 4.501-0.41 9.214 5.458 5.211 11.298z" data-name="Path 1472"/>
    <path transform="matrix(.921 .391 -.391 .921 1607.3 189.45)" d="m73.957 32.027c-7.738-4.048-9.324-0.876-31.676-0.108-27.985 0.955-43.372 3.14-56.352 6.924-11.992 3.491 1.255 28.739 18.229 27.372 14.342-1.159 62.428-18.37 70.502-21.765 4.167-1.75 5.574-9.15-0.703-12.423z" data-name="Path 1889"/>
    <path id="arm_right" transform="matrix(.951 -.309 .309 .951 1247.5 232.37)" d="m427.27 301.96c-6.319 2.794-15.651 1.006-53.452 1.129-23.061 0.068-31.1-1.718-38.145-2.667-4.313-0.583-9.693-1.321-13.628-3.288-5.928-3.923-7.466-13.082-7.35-17.457 0.294-10.991 5.915-19.2 12.555-18.71 37.487 2.746 78.373 14.763 87.561 13.827 13.422-1.366 19.946 23.847 12.459 27.166z" data-name="arm right"/>
   </g>
   <path transform="matrix(.951 -.309 .309 .951 1247.5 232.37)" d="m373.82 303.09c-6.434 0.019-11.7-0.106-16.406-0.332a193.21 193.21 0 0 1-21.74-2.335c-4.313-0.583-9.693-1.321-13.628-3.288-5.928-3.923-7.466-13.082-7.35-17.457 0.294-10.991 5.915-19.2 12.555-18.71 11.059 0.81 22.413 2.427 33.411 4.323 5.215 0.9 10.3 1.857 15.432 2.864 0.106 0.751-1.411 24.39-2.274 34.935z" fill="#f5f5f5" data-name="Path 1891"/>
   <path transform="rotate(-60 1015.6 -1172.9)" d="m83.855 7.648c-6.891 0.5-22.073 3.969-55.508 21.608-20.394 10.766-22.577 12.669-28.355 16.817a99.035 99.035 0 0 0-13.743 11.427c-3.483 4.58 3.135 13.511 4.96 16.734 5.419 9.566 14.238 14.181 19.869 10.629 31.81-20.024 65.978-43.893 74.529-47.38 12.493-5.095 6.417-30.419-1.752-29.835z" fill="#ffaf84" data-name="Path 1888"/>
   <path transform="rotate(-60 1015.6 -1172.9)" d="m31.46 27.627s-1.976 1.029-3.113 1.629c-20.394 10.766-22.577 12.669-28.355 16.817a99.035 99.035 0 0 0-13.743 11.427c-3.483 4.58 3.135 13.511 4.96 16.734 5.419 9.566 14.238 14.181 19.869 10.629 13.169-8.289 38.922-25.25 38.922-25.25z" fill="#f5f5f5" data-name="Path 1892"/>
  </g>
  <g transform="matrix(.695 -.719 .719 .695 1115.9 742.56)" data-name="Hand right">
   <path transform="rotate(231 98.593 76.137)" d="m16.427 47.867c6.144 1.973 15.192 12.574 24.245 12.786s11.6-5.242 21.7-4.408c7 0.579 23 3.115 29.78 1.912 8.148-1.444 10.809-9.157 17.548-12.713 25.71-13.588 9.817-32.877-5.24-39.582-8.932-3.969-25.078-5.862-31.642-5.862h-21.929c-7.352 0-16.034 0.585-23.16 2.415-24.34 6.244-32.853 24.179-24.582 36.423 2.493 3.696 6.969 7.003 13.28 9.029z" fill="#f5f5f5" data-name="White Tshirt"/>
   <g fill="#ffaf84">
    <path transform="matrix(.974 .225 -.225 .974 148.27 15.103)" d="m4.927 19.613c4.134-0.639 36.337-7.352 32.331-13.268-4.425-6.545-17.789-6.669-22.286-6.163-8.215 0.924-14.258 7.339-14.891 12.329-0.447 3.53 0.919 7.716 4.846 7.102z" data-name="Path 1887"/>
    <path transform="matrix(-.848 .53 -.53 -.848 185.73 95.813)" d="m19.429 5.609c-0.783 4.109-8.615 36.059-14.389 31.848-6.385-4.651-6.04-18.011-5.381-22.488 1.21-8.177 7.832-13.993 12.841-14.451 3.544-0.324 7.68 1.182 6.929 5.091z" data-name="Path 1896"/>
    <path transform="matrix(.974 .225 -.225 .974 147.76 30.233)" d="m4.148 5.849c1.841 0.551 12.8 3.773 13.552 1.765 1.137-3.065-5.927-5.533-10.6-7.19-2.53-0.894-6.545-0.402-7.016 1.739s1.116 2.802 4.064 3.686z" data-name="Path 1890"/>
    <path transform="matrix(-.848 .53 -.53 -.848 171.41 100.73)" d="m5.7 4.35c0.487 1.859 3.325 12.923 1.291 13.6-3.102 1.034-5.322-6.111-6.815-10.84-0.805-2.559-0.176-6.555 1.983-6.951s2.761 1.21 3.541 4.191z" data-name="Path 1897"/>
    <path transform="matrix(.974 .225 -.225 .974 75.705 4.79)" d="m84.206 1.832c-7.033-3.679-8.474-0.8-28.79-0.1-25.436 0.868-39.416 2.855-51.216 6.295-10.9 3.173-0.39 18.46 15.038 17.218 13.039-1.054 57.6-12.58 64.94-15.666 3.785-1.591 5.732-4.768 0.028-7.747z" data-name="Path 1889"/>
    <path transform="matrix(-.848 .53 -.53 -.848 216.95 162.44)" d="m-1.118 84.505c-3.431-7.157-0.5-8.5 0.906-28.776 1.755-25.39 4.228-39.3 8.077-50.968 3.551-10.783 18.463 0.255 16.683 15.63-1.508 12.994-14.581 57.128-17.922 64.354-1.726 3.73-4.966 5.565-7.744-0.24z" data-name="Path 1895"/>
    <path transform="matrix(.719 -.695 .695 .719 7.244 77.502)" d="m89.621 9e-3c-6.263 0.454-20.063 3.608-50.452 19.639-18.535 9.786-20.52 11.516-25.769 15.285a90.013 90.013 0 0 0-12.494 10.39c-3.166 4.163 2.85 12.277 4.509 15.21 4.926 8.695 10.2 7.938 15.316 4.71 28.912-18.2 59.968-39.894 67.74-43.064 11.355-4.631 8.575-22.7 1.15-22.17z" data-name="Path 1888"/>
    <path transform="matrix(-.629 -.777 .777 -.629 132.81 223.33)" d="m-3.116 89.567c0.672-6.243 4.306-19.924 21.388-49.735 10.428-18.184 12.228-20.106 16.175-25.223a90.013 90.013 0 0 1 10.819-12.121c4.271-3.019 12.174 3.276 15.043 5.036 8.518 5.226 7.577 10.469 4.173 15.476-19.2 28.26-41.963 58.539-45.4 66.2-5.026 11.178-22.987 7.768-22.198 0.367z" data-name="Path 1894"/>
   </g>
   <path transform="matrix(.719 -.695 .695 .719 19.864 90.571)" d="m42 0s-1.8 0.935-2.83 1.481c-18.536 9.785-20.521 11.519-25.77 15.285a90.013 90.013 0 0 0-12.494 10.389c-3.166 4.163 2.849 12.28 4.509 15.21 4.926 8.695 11.159 8.213 16.278 4.985 11.969-7.534 35.376-22.95 35.376-22.95z" fill="#f5f5f5" data-name="Path 1892"/>
   <path transform="matrix(-.629 -.777 .777 -.629 121.88 208.82)" d="m-1.466 41.973s1-1.762 1.578-2.776c10.427-18.183 12.225-20.105 16.176-25.223a90.013 90.013 0 0 1 10.819-12.121c4.271-3.018 12.174 3.277 15.043 5.037 8.518 5.226 7.819 11.439 4.414 16.442-7.948 11.7-24.171 34.554-24.171 34.554z" fill="#f5f5f5" data-name="Path 1893"/>
  </g>
  <g transform="rotate(87 1379.6 -34.362)" data-name="Hand right">
   <path transform="rotate(231 1008.6 31.907)" d="m322.98 320.09c28 8.991 74.331 12.284 102.62-2.666s10.8-36.172-5.765-43.549c-9.824-4.367-27.589-6.45-34.81-6.45h-24.123c-8.089 0-17.641 0.644-25.482 2.657-35.618 9.135-40.434 41.02-12.438 50.008z" fill="#0fd40a" data-name="White Tshirt"/>
   <g fill="#ffaf84">
    <path transform="matrix(.53 -.848 .848 .53 1335.8 444.14)" d="m342.51 273.33c5.43-1.892 48.854-14.529 47.809-4.761-1.148 10.8-17.289 19.577-23.074 21.865-10.567 4.181-22.043 0.294-26.032-5.355-2.822-3.996-3.867-9.96 1.297-11.749z" data-name="Path 1470"/>
    <path transform="matrix(.921 .391 -.391 .921 1669.8 225.05)" d="m-0.738 39.106c5.683-0.879 49.956-10.106 44.447-18.241-6.083-9-24.456-9.169-30.638-8.473-11.293 1.269-19.601 10.089-20.471 16.949-0.615 4.853 1.262 10.609 6.662 9.765z" data-name="Path 1887"/>
    <path transform="matrix(.53 -.848 .848 .53 1332.8 440.19)" d="m342.61 275.23c1.878-1.858 13.1-12.842 15.308-10.888 3.361 2.985-3.62 10.54-8.224 15.567-2.493 2.719-7.685 4.713-9.638 2.418s-0.456-4.119 2.554-7.097z" data-name="Path 1471"/>
    <path transform="matrix(.921 .391 -.391 .921 1663.7 250.56)" d="m-2.185 14.755c2.531 0.759 17.6 5.188 18.628 2.427 1.565-4.213-8.143-7.607-14.571-9.882-3.478-1.23-9-0.554-9.645 2.39s1.53 3.849 5.588 5.065z" data-name="Path 1890"/>
    <path transform="matrix(.53 -.848 .848 .53 1306.9 503.03)" d="m417.47 277.86c-4.932 7.207-7.821 5.15-27.917 14.966-25.158 12.3-39.769 17.589-53.007 20.342-12.227 2.548-12.384-25.964 3.245-32.726 13.211-5.711 63.745-13.088 72.468-13.88 4.501-0.41 9.214 5.458 5.211 11.298z" data-name="Path 1472"/>
    <path transform="matrix(.921 .391 -.391 .921 1607.3 189.45)" d="m73.957 32.027c-7.738-4.048-9.324-0.876-31.676-0.108-27.985 0.955-43.372 3.14-56.352 6.924-11.992 3.491 1.255 28.739 18.229 27.372 14.342-1.159 62.428-18.37 70.502-21.765 4.167-1.75 5.574-9.15-0.703-12.423z" data-name="Path 1889"/>
    <path transform="matrix(.951 -.309 .309 .951 1247.5 232.37)" d="m427.27 301.96c-6.319 2.794-15.651 1.006-53.452 1.129-23.061 0.068-31.1-1.718-38.145-2.667-4.313-0.583-9.693-1.321-13.628-3.288-5.928-3.923-7.466-13.082-7.35-17.457 0.294-10.991 5.915-19.2 12.555-18.71 37.487 2.746 78.373 14.763 87.561 13.827 13.422-1.366 19.946 23.847 12.459 27.166z" data-name="arm right"/>
   </g>
   <path transform="matrix(.951 -.309 .309 .951 1247.5 232.37)" d="m373.82 303.09c-6.434 0.019-11.7-0.106-16.406-0.332a193.21 193.21 0 0 1-21.74-2.335c-4.313-0.583-9.693-1.321-13.628-3.288-5.928-3.923-7.466-13.082-7.35-17.457 0.294-10.991 5.915-19.2 12.555-18.71 11.059 0.81 22.413 2.427 33.411 4.323 5.215 0.9 10.3 1.857 15.432 2.864 0.106 0.751-1.411 24.39-2.274 34.935z" fill="#0fd40a" data-name="Path 1891"/>
   <path transform="rotate(-60 1015.6 -1172.9)" d="m83.855 7.648c-6.891 0.5-22.073 3.969-55.508 21.608-20.394 10.766-22.577 12.669-28.355 16.817a99.035 99.035 0 0 0-13.743 11.427c-3.483 4.58 3.135 13.511 4.96 16.734 5.419 9.566 14.238 14.181 19.869 10.629 31.81-20.024 65.978-43.893 74.529-47.38 12.493-5.095 6.417-30.419-1.752-29.835z" fill="#ffaf84" data-name="Path 1888"/>
   <path transform="rotate(-60 1015.6 -1172.9)" d="m31.46 27.627s-1.976 1.029-3.113 1.629c-20.394 10.766-22.577 12.669-28.355 16.817a99.035 99.035 0 0 0-13.743 11.427c-3.483 4.58 3.135 13.511 4.96 16.734 5.419 9.566 14.238 14.181 19.869 10.629 13.169-8.289 38.922-25.25 38.922-25.25z" fill="#0fd40a" data-name="Path 1892"/>
  </g>
  <g fill="#ffaf84">
   <path id="head_skin" transform="rotate(-14 1723.7 -6074)" d="M 37,0 C 48.259,0 58.884,1.653 65.913,7.209 71.2,11.383 74,18.8 74,25 74,31.738 70.809,39.925 64.151,44.591 57.665,49.138 47.463,50 37,50 25.733,50 17.477,46.814 11.832,41.32 A 25.247,25.247 0 0 1 5.286,29.914 C 4.945,28.7 0,26.588 0,25 0,23.191 5.01,21.984 5.637,20.02 9.133,9.009 19.242,0 37,0 Z" data-name="head skin"/>
   <path transform="rotate(97 319.62 945.03)" d="m33.629 0c10.234 0 19.891 1.5 26.28 6.552 4.8 3.794 7.35 10.536 7.35 16.17 0 6.124-2.9 13.566-8.952 17.806-5.9 4.133-15.168 4.917-24.677 4.917-10.24 0-17.744-2.9-22.875-7.889a22.947 22.947 0 0 1-5.955-10.367c-0.305-1.105-4.8-3.023-4.8-4.466 0-1.644 4.554-2.741 5.123-4.527 3.177-10.008 12.366-18.196 28.506-18.196z" data-name="head skin"/>
   <path transform="rotate(239 575.58 -149.45)" d="M 37,0 C 48.259,0 58.884,1.653 65.913,7.209 71.2,11.383 74,18.8 74,25 74,31.738 70.809,39.925 64.151,44.591 57.665,49.138 47.463,50 37,50 25.733,50 17.477,46.814 11.832,41.32 A 25.247,25.247 0 0 1 5.286,29.914 C 4.945,28.7 0,26.588 0,25 0,23.191 5.01,21.984 5.637,20.02 9.133,9.009 19.242,0 37,0 Z" data-name="head skin"/>
  </g>
  <path transform="rotate(-14 1720.6 -6068.6)" d="m38.07 0c11.672 0 22.686 1.714 29.973 7.473 5.48 4.327 8.383 12.016 8.383 18.443 0 6.985-3.308 15.472-10.21 20.308-6.724 4.714-17.3 5.608-28.145 5.608-3.372 0-11.01 0.338-13.8-2-2.068-1.731 0.713-6.094-2.2-7.227a20.062 20.062 0 0 1-6.917-4.4 30.461 30.461 0 0 0-0.4-6.509c-0.353-1.261-6.967-4.1-6.967-5.743 0-0.958 2.066-1.8 4.145-4.843 1.645-2.407-1.516-5.98-1.2-6.976 0.75-2.363 2.327-1.255 3.847-3.644 1.527-2.4 2.47-7.524 5.682-9.042s7.678-1.448 17.809-1.448z" fill="#212226" data-name="head skin"/>
  <path transform="rotate(239 575.92 -148.64)" d="m38.07 0c11.672 0 22.686 1.714 29.973 7.473 5.48 4.327 8.383 12.016 8.383 18.443 0 6.985-3.308 15.472-10.21 20.308-6.724 4.714-17.3 5.608-28.145 5.608-3.372 0-11.01 0.338-13.8-2-2.068-1.731 0.713-6.094-2.2-7.227a20.062 20.062 0 0 1-6.917-4.4 30.461 30.461 0 0 0-0.4-6.509c-0.353-1.261-6.967-4.1-6.967-5.743 0-0.958 2.066-1.8 4.145-4.843 1.645-2.407-1.516-5.98-1.2-6.976 0.75-2.363 2.327-1.255 3.847-3.644 1.527-2.4 2.47-7.524 5.682-9.042s7.678-1.448 17.809-1.448z" fill="#723500" data-name="head skin"/>
  <path transform="rotate(-12 4214.8 -5475.7)" d="m23.832 1.318c-5.932 4.482-8.261 6.882-11.147 17.628s-13.785 15.863-15.3 21.062c-4.51 9.674 17.687 24.206 26.678 26.8 9.525 1.684 33.079 3.419 35.7-6.042 3.217-11.925-3.936-15.149-1.356-32.1s-0.936-18.388-2.565-20.726-4.342-4.819-12.975-7.473-12.29-2.038-19.035 0.851z" fill="url(#linear-gradient-3)" data-name="Path 1478"/>
 </g>
</svg>
